module go-gin-mysql-test-dot

go 1.14

require (
	github.com/PuerkitoBio/purell v1.2.1 // indirect
	github.com/PuerkitoBio/urlesc v0.0.0-20170810143723-de5bf2ad4578 // indirect
	github.com/alecthomas/template v0.0.0-20190718012654-fb15b899a751 // indirect
	github.com/cpuguy83/go-md2man/v2 v2.0.3 // indirect
	github.com/dgrijalva/jwt-go v3.2.0+incompatible
	github.com/fsnotify/fsnotify v1.4.7 // indirect
	github.com/gin-contrib/cors v0.0.0-20170318125340-cf4846e6a636
	github.com/gin-gonic/gin v1.5.0
	github.com/go-openapi/jsonpointer v0.20.0 // indirect
	github.com/go-openapi/jsonreference v0.20.2 // indirect
	github.com/go-openapi/spec v0.20.9 // indirect
	github.com/go-playground/universal-translator v0.18.0 // indirect
	github.com/go-playground/validator v9.31.0+incompatible // indirect
	github.com/go-redis/redis v6.15.9+incompatible // indirect
	github.com/golang/protobuf v1.3.5 // indirect
	github.com/googollee/go-socket.io v1.6.1 // indirect
	github.com/graarh/golang-socketio v0.0.0-20170510162725-2c44953b9b5f // indirect
	github.com/hashicorp/hcl v0.0.0-20180404174102-ef8a98b0bbce // indirect
	github.com/jinzhu/now v1.1.4 // indirect
	github.com/joho/godotenv v1.4.0 // indirect
	github.com/json-iterator/go v1.1.9 // indirect
	github.com/leodido/go-urn v1.2.1 // indirect
	github.com/lib/pq v1.10.3 // indirect
	github.com/magiconair/properties v1.8.0 // indirect
	github.com/mailru/easyjson v0.7.7 // indirect
	github.com/mattn/go-isatty v0.0.20 // indirect
	github.com/mitchellh/mapstructure v0.0.0-20180715050151-f15292f7a699 // indirect
	github.com/nu7hatch/gouuid v0.0.0-20131221200532-179d4d0c4d8d // indirect
	github.com/paimanbandi/rupiah v0.0.0-20190615092530-d26e508f1077 // indirect
	github.com/pelletier/go-toml v1.2.0 // indirect
	github.com/pkg/errors v0.9.1 // indirect
	github.com/rs/zerolog v1.31.0 // indirect
	github.com/satori/go.uuid v1.2.0 // indirect
	github.com/shopspring/decimal v1.2.0 // indirect
	github.com/spf13/afero v1.1.1 // indirect
	github.com/spf13/cast v1.2.0 // indirect
	github.com/spf13/jwalterweatherman v0.0.0-20180109140146-7c0cea34c8ec // indirect
	github.com/spf13/pflag v1.0.1 // indirect
	github.com/spf13/viper v1.0.2
	github.com/streadway/amqp v1.0.0 // indirect
	github.com/swaggo/files v0.0.0-20190704085106-630677cd5c14
	github.com/swaggo/gin-swagger v1.2.0
	github.com/swaggo/swag v1.16.2
	github.com/urfave/cli v1.22.2 // indirect
	github.com/urfave/cli/v2 v2.25.7 // indirect
	golang.org/x/crypto v0.14.0 // indirect
	golang.org/x/sys v0.14.0 // indirect
	golang.org/x/text v0.14.0 // indirect
	golang.org/x/tools v0.14.0 // indirect
	golang.org/x/xerrors v0.0.0-20200804184101-5ec99f83aff1 // indirect
	gopkg.in/go-playground/validator.v8 v8.18.2 // indirect
	gopkg.in/go-playground/validator.v9 v9.31.0 // indirect
	gopkg.in/validator.v2 v2.0.0-20210331031555-b37d688a7fb0 // indirect
	gorm.io/driver/mysql v1.3.2 // indirect
	gorm.io/gorm v1.23.4 // indirect
	sigs.k8s.io/yaml v1.4.0 // indirect
)
